{
  "username" : "curaguard",
  "password" : "7b6a43524a152c09787b376e1b517470477c612a43",
  "url" : "jdbc:sqlserver://curaguardband.database.windows.net:1433;databaseName=BandData",
  "driverClass" : "com.microsoft.sqlserver.jdbc.SQLServerDriver",
  "dialect" : "com.wavemaker.runtime.data.dialect.WMSQLServerDialect",
  "serviceId" : "BandData",
  "packageName" : "com.curaguard_customer_portal.banddata",
  "dbType" : "SQLServer",
  "host" : "curaguardband.database.windows.net",
  "dbName" : "BandData",
  "port" : "1433",
  "schemaName" : "dbo",
  "tableFilter" : [ "Alert", "BandNotification", "BandUserSettings_WaveCopy", "Contact", "FallIncidentLog_WaveCopy", "NotificationRecurrenceType", "Organisation", "Role", "User", "UserAlerts", "UserContacts", "UserNotifications", "AdminLog_Wave", "DELETEME_Testing", "IncidentStatus", "LatestTelemetryData" ],
  "schemaFilter" : [ "dbo" ],
  "impersonateUser" : false,
  "activeDirectoryDomain" : null,
  "hbm2ddl" : "none",
  "maxPageSize" : 100,
  "dataSourceType" : "WM_MANAGED_DATASOURCE",
  "jndiName" : "",
  "readOnly" : false
}